[gd_scene load_steps=7 format=1]

[ext_resource path="res://Sprites/Menu/buttonStock1h.png" type="Texture" id=1]
[ext_resource path="res://Fonts/chrono_trigger.fnt" type="BitmapFont" id=2]

[sub_resource type="StyleBoxTexture" id=9]

content_margin/left = -1.0
content_margin/right = -1.0
content_margin/top = -1.0
content_margin/bottom = -1.0
texture = ExtResource( 1 )
margin/left = 0.0
margin/right = 0.0
margin/top = 0.0
margin/bottom = 0.0
expand_margin/left = 10.0
expand_margin/right = 10.0
expand_margin/top = 30.0
expand_margin/bottom = 30.0
draw_center = true

[sub_resource type="StyleBoxTexture" id=10]

content_margin/left = -1.0
content_margin/right = -1.0
content_margin/top = -1.0
content_margin/bottom = -1.0
texture = ExtResource( 1 )
margin/left = 0.0
margin/right = 0.0
margin/top = 0.0
margin/bottom = 0.0
expand_margin/left = 10.0
expand_margin/right = 10.0
expand_margin/top = 30.0
expand_margin/bottom = 30.0
draw_center = true

[sub_resource type="StyleBoxTexture" id=11]

content_margin/left = -1.0
content_margin/right = -1.0
content_margin/top = -1.0
content_margin/bottom = -1.0
texture = ExtResource( 1 )
margin/left = 0.0
margin/right = 0.0
margin/top = 0.0
margin/bottom = 0.0
expand_margin/left = 10.0
expand_margin/right = 10.0
expand_margin/top = 30.0
expand_margin/bottom = 30.0
draw_center = true

[sub_resource type="StyleBoxTexture" id=12]

content_margin/left = -1.0
content_margin/right = -1.0
content_margin/top = -1.0
content_margin/bottom = -1.0
texture = ExtResource( 1 )
margin/left = 0.0
margin/right = 0.0
margin/top = 0.0
margin/bottom = 0.0
expand_margin/left = 10.0
expand_margin/right = 10.0
expand_margin/top = 30.0
expand_margin/bottom = 30.0
draw_center = true

[node name="Restart_game1" type="Button"]

focus/ignore_mouse = false
focus/stop_mouse = true
size_flags/horizontal = 2
size_flags/vertical = 2
margin/left = 460.0
margin/top = 330.0
margin/right = 596.0
margin/bottom = 354.0
custom_styles/hover = SubResource( 9 )
custom_styles/pressed = SubResource( 10 )
custom_styles/focus = SubResource( 11 )
custom_styles/normal = SubResource( 12 )
custom_fonts/font = ExtResource( 2 )
custom_colors/font_color_hover = Color( 0.0509804, 0.67451, 0.247059, 1 )
toggle_mode = false
enabled_focus_mode = 2
shortcut = null
text = "Restart Game"
flat = false


